Suppress Specific Warnings — suppress_warning • admiraldev
…
    Examples

library(dplyr, warn.conflicts = FALSE)
library(admiral)
library(admiral.test)
data(admiral_adsl)
data(admiral_vs)

# Remove label
attr(admiral_vs$USUBJID, "label") <- NULL

left_join(admiral_adsl, admiral_vs, by = "USUBJID")
#> Warning: Column `USUBJID` has different attributes on LHS and RHS of join
#> # A tibble: 29,695 x 71
#>    STUDYID.x USUBJID SUBJID RFSTDTC RFENDTC RFXSTDTC RFXENDTC RFICDTC RFPENDTC
#>    <chr>     <chr>   <chr>  <chr>   <chr>   <chr>    <chr>    <chr>   <chr>   
#>  1 CDISCPIL… 01-701… 1015   2014-0… 2014-0… 2014-01… 2014-07… NA      2014-07…
#>  2 CDISCPIL… 01-701… 1015   2014-0… 2014-0… 2014-01… 2014-07… NA      2014-07…
#>  3 CDISCPIL… 01-701… 1015   2014-0… 2014-0… 2014-01… 2014-07… NA      2014-07…
#>  4 CDISCPIL… 01-701… 1015   2014-0… 2014-0… 2014-01… 2014-07… NA      2014-07…
#>  5 CDISCPIL… 01-701… 1015   2014-0… 2014-0… 2014-01… 2014-07… NA      2014-07…
#>  6 CDISCPIL… 01-701… 1015   2014-0… 2014-0… 2014-01… 2014-07… NA      2014-07…
#>  7 CDISCPIL… 01-701… 1015   2014-0… 2014-0… 2014-01… 2014-07… NA      2014-07…
#>  8 CDISCPIL… 01-701… 1015   2014-0… 2014-0… 2014-01… 2014-07… NA      2014-07…
#>  9 CDISCPIL… 01-701… 1015   2014-0… 2014-0… 2014-01… 2014-07… NA      2014-07…
#> 10 CDISCPIL… 01-701… 1015   2014-0… 2014-0… 2014-01… 2014-07… NA      2014-07…
#> # … with 29,685 more rows, and 62 more variables: DTHDTC <chr>, DTHFL <chr>,
#> #   SITEID <chr>, AGE <dbl>, AGEU <chr>, SEX <chr>, RACE <chr>, ETHNIC <chr>,
#> #   ARMCD <chr>, ARM <chr>, ACTARMCD <chr>, ACTARM <chr>, COUNTRY <chr>,
#> #   DMDTC <chr>, DMDY <dbl>, TRT01P <chr>, TRT01A <chr>, TRTSDTM <dttm>,
#> #   TRTEDTM <dttm>, TRTSDT <date>, TRTEDT <date>, TRTDURD <dbl>, SCRFDT <date>,
#> #   EOSDT <date>, EOSSTT <chr>, FRVDT <date>, DTHDT <date>, DTHDTF <chr>,
#> #   DTHADY <dbl>, LDDTHELD <dbl>, LSTALVDT <date>, AGEGR1 <fct>, SAFFL <chr>,
#> #   RACEGR1 <chr>, REGION1 <chr>, LDDTHGR1 <chr>, DTH30FL <chr>,
#> #   DTHA30FL <chr>, DTHB30FL <chr>, STUDYID.y <chr>, DOMAIN <chr>, VSSEQ <dbl>,
#> #   VSTESTCD <chr>, VSTEST <chr>, VSPOS <chr>, VSORRES <chr>, VSORRESU <chr>,
#> #   VSSTRESC <chr>, VSSTRESN <dbl>, VSSTRESU <chr>, VSSTAT <chr>, VSLOC <chr>,
#> #   VSBLFL <chr>, VISITNUM <dbl>, VISIT <chr>, VISITDY <dbl>, VSDTC <chr>,
#> #   VSDY <dbl>, VSTPT <chr>, VSTPTNUM <dbl>, VSELTM <chr>, VSTPTREF <chr>

suppress_warning(
  left_join(admiral_adsl, admiral_vs, by = "USUBJID"),
  "^Column `USUBJID` has different attributes on LHS and RHS of join$"
)
#> # A tibble: 29,695 x 71
#>    STUDYID.x USUBJID SUBJID RFSTDTC RFENDTC RFXSTDTC RFXENDTC RFICDTC RFPENDTC
#>    <chr>     <chr>   <chr>  <chr>   <chr>   <chr>    <chr>    <chr>   <chr>   
#>  1 CDISCPIL… 01-701… 1015   2014-0… 2014-0… 2014-01… 2014-07… NA      2014-07…
#>  2 CDISCPIL… 01-701… 1015   2014-0… 2014-0… 2014-01… 2014-07… NA      2014-07…
#>  3 CDISCPIL… 01-701… 1015   2014-0… 2014-0… 2014-01… 2014-07… NA      2014-07…
#>  4 CDISCPIL… 01-701… 1015   2014-0… 2014-0… 2014-01… 2014-07… NA      2014-07…
#>  5 CDISCPIL… 01-701… 1015   2014-0… 2014-0… 2014-01… 2014-07… NA      2014-07…
#>  6 CDISCPIL… 01-701… 1015   2014-0… 2014-0… 2014-01… 2014-07… NA      2014-07…
#>  7 CDISCPIL… 01-701… 1015   2014-0… 2014-0… 2014-01… 2014-07… NA      2014-07…
#>  8 CDISCPIL… 01-701… 1015   2014-0… 2014-0… 2014-01… 2014-07… NA      2014-07…
#>  9 CDISCPIL… 01-701… 1015   2014-0… 2014-0… 2014-01… 2014-07… NA      2014-07…
#> 10 CDISCPIL… 01-701… 1015   2014-0… 2014-0… 2014-01… 2014-07… NA      2014-07…
#> # … with 29,685 more rows, and 62 more variables: DTHDTC <chr>, DTHFL <chr>,
#> #   SITEID <chr>, AGE <dbl>, AGEU <chr>, SEX <chr>, RACE <chr>, ETHNIC <chr>,
#> #   ARMCD <chr>, ARM <chr>, ACTARMCD <chr>, ACTARM <chr>, COUNTRY <chr>,
#> #   DMDTC <chr>, DMDY <dbl>, TRT01P <chr>, TRT01A <chr>, TRTSDTM <dttm>,
#> #   TRTEDTM <dttm>, TRTSDT <date>, TRTEDT <date>, TRTDURD <dbl>, SCRFDT <date>,
#> #   EOSDT <date>, EOSSTT <chr>, FRVDT <date>, DTHDT <date>, DTHDTF <chr>,
#> #   DTHADY <dbl>, LDDTHELD <dbl>, LSTALVDT <date>, AGEGR1 <fct>, SAFFL <chr>,
#> #   RACEGR1 <chr>, REGION1 <chr>, LDDTHGR1 <chr>, DTH30FL <chr>,
#> #   DTHA30FL <chr>, DTHB30FL <chr>, STUDYID.y <chr>, DOMAIN <chr>, VSSEQ <dbl>,
…
